rvest tutorial demonstration
…
Placing both vectors into a tibble makes manipulation easier when using tidyverse techniques.

Goal

I want to develop a systematic workflow that builds a tibble consisting of each of the 50 names listed in the summary results object retrieved by read_html() performed on this page. Of course, mining and parsing the data is just the beginning. Data cleaning is a vital and constant aspect of web scraping.

Build Tibble

Using vectors from parsing functions above….

results_df <- tibble(names, url)

results_df

# A tibble: 50 × 2
   names                                           url             
   <chr>                                           <chr>           
 1 Hillebrand Boudewynsz. van der Aa (1661 - 1717) ../persons/414  
 2 Boudewijn Pietersz van der Aa (? - ?)           ../persons/10566
 3 Pieter Boudewijnsz. van der Aa (1659 - 1733)    ../persons/10567
 4 Boudewyn  van der Aa (1672 - ca. 1718)          ../persons/10568
 5 Machtelt  van der Aa (? - ?)                    ../persons/27132
 6 Claas van der Aa I (? - ?)                      ../persons/33780
 7 Claas van der Aa II (? - ?)                     ../persons/33781
 8 Willem van der Aa (? - ?)                       ../persons/33782
 9 Johanna  van der Aa (? - ?)                     ../persons/59894
10 Hans  von Aachen (1552 - 1615)                  ../persons/9203 
# ℹ 40 more rows

From above we have links in a url vector, and target names in a names vector, for fifty names from the target website we want to crawl. Of course you also want to parse data for each person in the database. To do this we need to read (i.e. read_html()) the HTML for each relevant url in the results_df tibble. Below is an example of how to systematize the workflow. To do that, we’ll make a results tibble, results_df. But first, more data cleaning…

Create some new variables with mutate. Build a full URL from the relative URL path (i.e. the url vector) and the domain or base URL of the target site. Since we scraped the relative URL path, we have to construct a full URL.

urls_to_crawl_df <- results_df %>% 
  mutate(url = str_replace(url, "\\.\\.", "ecartico")) %>%   # fixing a relative path reference by replacing '..' with 'ecartico' 
  mutate(full_url = glue::glue("http://www.vondel.humanities.uva.nl/{url}")) %>% 
  # mutate(full_url = str_replace_all(full_url, "\\.\\.", "")) %>% 
  select(full_url)

urls_to_crawl_df  

# A tibble: 50 × 1
   full_url                                                  
   <glue>                                                    
 1 http://www.vondel.humanities.uva.nl/ecartico/persons/414  
 2 http://www.vondel.humanities.uva.nl/ecartico/persons/10566
 3 http://www.vondel.humanities.uva.nl/ecartico/persons/10567
 4 http://www.vondel.humanities.uva.nl/ecartico/persons/10568
 5 http://www.vondel.humanities.uva.nl/ecartico/persons/27132
 6 http://www.vondel.humanities.uva.nl/ecartico/persons/33780
 7 http://www.vondel.humanities.uva.nl/ecartico/persons/33781
 8 http://www.vondel.humanities.uva.nl/ecartico/persons/33782
 9 http://www.vondel.humanities.uva.nl/ecartico/persons/59894
10 http://www.vondel.humanities.uva.nl/ecartico/persons/9203 
# ℹ 40 more rows
…
nav_df

# A tibble: 27 × 1
   url                                                                          
   <glue>                                                                       
 1 http://www.vondel.humanities.uva.nl/ecartico/persons/index.php?subtask=brows…
 2 http://www.vondel.humanities.uva.nl/ecartico/persons/index.php?subtask=brows…
 3 http://www.vondel.humanities.uva.nl/ecartico/persons/index.php?subtask=brows…
 4 http://www.vondel.humanities.uva.nl/ecartico/persons/index.php?subtask=brows…
 5 http://www.vondel.humanities.uva.nl/ecartico/persons/index.php?subtask=brows…
 6 http://www.vondel.humanities.uva.nl/ecartico/persons/index.php?subtask=brows…
 7 http://www.vondel.humanities.uva.nl/ecartico/persons/index.php?subtask=brows…
 8 http://www.vondel.humanities.uva.nl/ecartico/persons/index.php?subtask=brows…
 9 http://www.vondel.humanities.uva.nl/ecartico/persons/index.php?subtask=brows…
10 http://www.vondel.humanities.uva.nl/ecartico/persons/index.php?subtask=brows…
# ℹ 17 more rows
…
unnest

When I unnest the nested list, I then have a single tibble with 150 URLs and 150 names, one row for each target name. (I also used filter() to do some more regex data cleanup, which I alluded to near the beginning of this document.)

results_by_page %>% 
  unnest(cols = c(url, name)) %>% 
  mutate(url = str_replace(url, "\\.\\.", "ecartico")) %>%   # fixing a relative path reference by replacing '..' with 'ecartico' 
  mutate(full_url = glue::glue("http://www.vondel.humanities.uva.nl/{url}")) 

# A tibble: 150 × 4
   summary_url                                              url   name  full_url
   <glue>                                                   <chr> <chr> <glue>  
 1 http://www.vondel.humanities.uva.nl/ecartico/persons/in… ecar… Hill… http://…
 2 http://www.vondel.humanities.uva.nl/ecartico/persons/in… ecar… Boud… http://…
 3 http://www.vondel.humanities.uva.nl/ecartico/persons/in… ecar… Piet… http://…
 4 http://www.vondel.humanities.uva.nl/ecartico/persons/in… ecar… Boud… http://…
 5 http://www.vondel.humanities.uva.nl/ecartico/persons/in… ecar… Mach… http://…
 6 http://www.vondel.humanities.uva.nl/ecartico/persons/in… ecar… Claa… http://…
 7 http://www.vondel.humanities.uva.nl/ecartico/persons/in… ecar… Claa… http://…
 8 http://www.vondel.humanities.uva.nl/ecartico/persons/in… ecar… Will… http://…
 9 http://www.vondel.humanities.uva.nl/ecartico/persons/in… ecar… Joha… http://…
10 http://www.vondel.humanities.uva.nl/ecartico/persons/in… ecar… Hans… http://…
# ℹ 140 more rows
…
name_urls_df <- nav_df |>
  slice(1:3) |> 
  mutate(html_results = map(url, get_name_html)) |> 
  mutate(name_url = map(html_results, ~ .x |> html_elements("#setwidth li a") |> html_attr("href"))) |> 
  mutate(name = map(html_results, ~ .x |> html_elements("#setwidth li a") |> html_text())) |> 
  unnest(cols = c(name_url, name)) |> 
  mutate(name_url = str_replace(name_url, "\\.\\.", "ecartico")) |> 
  mutate(name_full_url = str_glue("http://www.vondel.humanities.uva.nl/{name_url}"))
name_urls_df

# A tibble: 150 × 5
   url                                 html_results name_url name  name_full_url
   <glue>                              <list>       <chr>    <chr> <glue>       
 1 http://www.vondel.humanities.uva.n… <xml_dcmn>   ecartic… Hill… http://www.v…
 2 http://www.vondel.humanities.uva.n… <xml_dcmn>   ecartic… Boud… http://www.v…
 3 http://www.vondel.humanities.uva.n… <xml_dcmn>   ecartic… Piet… http://www.v…
 4 http://www.vondel.humanities.uva.n… <xml_dcmn>   ecartic… Boud… http://www.v…
 5 http://www.vondel.humanities.uva.n… <xml_dcmn>   ecartic… Mach… http://www.v…
 6 http://www.vondel.humanities.uva.n… <xml_dcmn>   ecartic… Claa… http://www.v…
 7 http://www.vondel.humanities.uva.n… <xml_dcmn>   ecartic… Claa… http://www.v…
 8 http://www.vondel.humanities.uva.n… <xml_dcmn>   ecartic… Will… http://www.v…
 9 http://www.vondel.humanities.uva.n… <xml_dcmn>   ecartic… Joha… http://www.v…
10 http://www.vondel.humanities.uva.n… <xml_dcmn>   ecartic… Hans… http://www.v…
# ℹ 140 more rows
…
